{"verses":[{"id":1,"verse_number":1,"verse_key":"1:1","hizb_number":1,"rub_el_hizb_number":1,"ruku_number":1,"manzil_number":1,"sajdah_number":null,"page_number":1,"juz_number":1,"translations":[{"id":96343,"resource_id":20,"text":"In the name of AllÄh,<sup foot_note=195932>1</sup> the Entirely Merciful, the Especially Merciful.<sup foot_note=195931>2</sup>"}]}],"pagination":{"per_page":1,"current_page":1,"next_page":2,"total_pages":7,"total_records":7}}
