{"verses":[{"id":1,"verse_number":1,"verse_key":"1:1","hizb_number":1,"rub_el_hizb_number":1,"ruku_number":1,"manzil_number":1,"sajdah_number":null,"text_uthmani":"بِسْمِ ٱللَّهِ ٱلرَّحْمَـٰنِ ٱلرَّحِيمِ","page_number":1,"juz_number":1}],"pagination":{"per_page":1,"current_page":1,"next_page":2,"total_pages":7,"total_records":7}}
